{
  "@context": "https://w3id.org/codemeta/3.0",
  "type": "SoftwareSourceCode",
  "applicationCategory": "research data management",
  "author": [
    {
      "id": "https://orcid.org/0000-0001-6998-0017",
      "type": "Person",
      "affiliation": {
        "type": "Organization",
        "name": "DLR e.V."
      },
      "email": "Michael.Vistein@dlr.de",
      "familyName": "Vistein",
      "givenName": "Michael"
    },
    {
      "id": "https://orcid.org/0000-0001-6285-3242",
      "type": "Person",
      "affiliation": {
        "type": "Organization",
        "name": "DLR e.V."
      },
      "email": "Tobias.Haase@dlr.de",
      "familyName": "Haase",
      "givenName": "Tobias"
    }
  ],
  "codeRepository": "https://gitlab.com/dlr-shepard/shepard-timeseries-collector",
  "description": "Aggregate time series data and transfer to shepard",
  "keywords": [
    "data management",
    "data aggregation",
    "time series"
  ],
  "license": "https://spdx.org/licenses/Apache-2.0",
  "name": "shepard Timeseries Collector",
  "programmingLanguage": "Java",
  "relatedLink": "https://www.dlr.de/zlp/en/desktopdefault.aspx/tabid-18285/29082_read-76551/#/gallery/37839",
  "runtimePlatform": "JVM",
  "version": "1.0.0",
  "developmentStatus": "active"
}